module gitlab.com/hectormalot/aoc2021

go 1.18

require github.com/stretchr/testify v1.7.0

require (
	github.com/RyanCarrier/dijkstra v1.1.0 // indirect
	github.com/barkimedes/go-deepcopy v0.0.0-20200817023428-a044a1957ca4 // indirect
	github.com/davecgh/go-spew v1.1.0 // indirect
	github.com/pmezard/go-difflib v1.0.0 // indirect
	gopkg.in/yaml.v3 v3.0.0-20200313102051-9f266ea9e77c // indirect
)
